{
    "page": 1,
    "per_page": 10,
    "total": 28,
    "total_pages": 3,
    "data": [
        {
            "id": 6,
            "timestamp": 1568550058964,
            "diagnosis": {
                "id": 3,
                "name": "Pulmonary embolism",
                "severity": 4
            },
            "vitals": {
                "bloodPressureDiastole": 155,
                "bloodPressureSystole": 90,
                "pulse": 130,
                "breathingRate": 29,
                "bodyTemperature": 99.2
            },
            "doctor": {
                "id": 2,
                "name": "Dr Arnold Bullock"
            },
            "userId": 1,
            "userName": "John Oliver",
            "userDob": "02-01-1986",
            "meta": {
                "height": 168,
                "weight": 173
            }
        },
        {
            "id": 7,
            "timestamp": 1564691138999,
            "diagnosis": {
                "id": 3,
                "name": "Pulmonary embolism",
                "severity": 4
            },
            "vitals": {
                "bloodPressureDiastole": 147,
                "bloodPressureSystole": 100,
                "pulse": 138,
                "breathingRate": 25,
                "bodyTemperature": 100
            },
            "doctor": {
                "id": 3,
                "name": "Dr Pilar Cristancho"
            },
            "userId": 1,
            "userName": "John Oliver",
            "userDob": "02-01-1986",
            "meta": {
                "height": 168,
                "weight": 196
            }
        },
        {
            "id": 8,
            "timestamp": 1562157191823,
            "diagnosis": {
                "id": 2,
                "name": "Common Cold",
                "severity": 1
            },
            "vitals": {
                "bloodPressureDiastole": 122,
                "bloodPressureSystole": 77,
                "pulse": 91,
                "breathingRate": 20,
                "bodyTemperature": 101.5
            },
            "doctor": {
                "id": 3,
                "name": "Dr Pilar Cristancho"
            },
            "userId": 1,
            "userName": "John Oliver",
            "userDob": "02-01-1986",
            "meta": {
                "height": 168,
                "weight": 175
            }
        },
        {
            "id": 13,
            "timestamp": 1551906996274,
            "diagnosis": {
                "id": 2,
                "name": "Common Cold",
                "severity": 1
            },
            "vitals": {
                "bloodPressureDiastole": 121,
                "bloodPressureSystole": 80,
                "pulse": 91,
                "breathingRate": 18,
                "bodyTemperature": 101.3
            },
            "doctor": {
                "id": 4,
                "name": "Dr Allysa Ellis"
            },
            "userId": 1,
            "userName": "John Oliver",
            "userDob": "02-01-1986",
            "meta": {
                "height": 168,
                "weight": 180
            }
        },
        {
            "id": 15,
            "timestamp": 1551566179628,
            "diagnosis": {
                "id": 4,
                "name": "Pleurisy",
                "severity": 3
            },
            "vitals": {
                "bloodPressureDiastole": 136,
                "bloodPressureSystole": 88,
                "pulse": 112,
                "breathingRate": 25,
                "bodyTemperature": 99.3
            },
            "doctor": {
                "id": 3,
                "name": "Dr Pilar Cristancho"
            },
            "userId": 1,
            "userName": "John Oliver",
            "userDob": "02-01-1986",
            "meta": {
                "height": 168,
                "weight": 192
            }
        },
        {
            "id": 22,
            "timestamp": 1563243111785,
            "diagnosis": {
                "id": 4,
                "name": "Pleurisy",
                "severity": 3
            },
            "vitals": {
                "bloodPressureDiastole": 139,
                "bloodPressureSystole": 82,
                "pulse": 105,
                "breathingRate": 28,
                "bodyTemperature": 97.1
            },
            "doctor": {
                "id": 3,
                "name": "Dr Pilar Cristancho"
            },
            "userId": 1,
            "userName": "John Oliver",
            "userDob": "02-01-1986",
            "meta": {
                "height": 168,
                "weight": 196
            }
        },
        {
            "id": 24,
            "timestamp": 1563805161434,
            "diagnosis": {
                "id": 3,
                "name": "Pulmonary embolism",
                "severity": 4
            },
            "vitals": {
                "bloodPressureDiastole": 144,
                "bloodPressureSystole": 92,
                "pulse": 137,
                "breathingRate": 34,
                "bodyTemperature": 102.5
            },
            "doctor": {
                "id": 2,
                "name": "Dr Arnold Bullock"
            },
            "userId": 1,
            "userName": "John Oliver",
            "userDob": "02-01-1986",
            "meta": {
                "height": 168,
                "weight": 191
            }
        },
        {
            "id": 30,
            "timestamp": 1549051080085,
            "diagnosis": {
                "id": 4,
                "name": "Pleurisy",
                "severity": 3
            },
            "vitals": {
                "bloodPressureDiastole": 130,
                "bloodPressureSystole": 82,
                "pulse": 114,
                "breathingRate": 23,
                "bodyTemperature": 98.6
            },
            "doctor": {
                "id": 3,
                "name": "Dr Pilar Cristancho"
            },
            "userId": 1,
            "userName": "John Oliver",
            "userDob": "02-01-1986",
            "meta": {
                "height": 168,
                "weight": 188
            }
        },
        {
            "id": 33,
            "timestamp": 1552027463340,
            "diagnosis": {
                "id": 4,
                "name": "Pleurisy",
                "severity": 3
            },
            "vitals": {
                "bloodPressureDiastole": 133,
                "bloodPressureSystole": 83,
                "pulse": 126,
                "breathingRate": 19,
                "bodyTemperature": 99.7
            },
            "doctor": {
                "id": 4,
                "name": "Dr Allysa Ellis"
            },
            "userId": 1,
            "userName": "John Oliver",
            "userDob": "02-01-1986",
            "meta": {
                "height": 168,
                "weight": 185
            }
        },
        {
            "id": 41,
            "timestamp": 1546789224456,
            "diagnosis": {
                "id": 3,
                "name": "Pulmonary embolism",
                "severity": 4
            },
            "vitals": {
                "bloodPressureDiastole": 151,
                "bloodPressureSystole": 96,
                "pulse": 130,
                "breathingRate": 26,
                "bodyTemperature": 103
            },
            "doctor": {
                "id": 4,
                "name": "Dr Allysa Ellis"
            },
            "userId": 1,
            "userName": "John Oliver",
            "userDob": "02-01-1986",
            "meta": {
                "height": 168,
                "weight": 174
            }
        }
    ]
}